\relax 
\providecommand\hyper@newdestlabel[2]{}
\providecommand\HyperFirstAtBeginDocument{\AtBeginDocument}
\HyperFirstAtBeginDocument{\ifx\hyper@anchor\@undefined
\global\let\oldcontentsline\contentsline
\gdef\contentsline#1#2#3#4{\oldcontentsline{#1}{#2}{#3}}
\global\let\oldnewlabel\newlabel
\gdef\newlabel#1#2{\newlabelxx{#1}#2}
\gdef\newlabelxx#1#2#3#4#5#6{\oldnewlabel{#1}{{#2}{#3}}}
\AtEndDocument{\ifx\hyper@anchor\@undefined
\let\contentsline\oldcontentsline
\let\newlabel\oldnewlabel
\fi}
\fi}
\global\let\hyper@last\relax 
\gdef\HyperFirstAtBeginDocument#1{#1}
\providecommand\HyField@AuxAddToFields[1]{}
\providecommand\HyField@AuxAddToCoFields[2]{}
\babel@aux{english}{}
\newlabel{index::doc}{{}{1}{}{section*.2}{}}
\@writefile{toc}{\contentsline {chapter}{\numberline {1}Contents}{1}{chapter.1}}
\@writefile{lof}{\addvspace {10\p@ }}
\@writefile{lot}{\addvspace {10\p@ }}
\newlabel{index:contents}{{1}{1}{Contents}{chapter.1}{}}
\@writefile{toc}{\contentsline {section}{\numberline {1.1}Artists}{1}{section.1.1}}
\newlabel{artists:artists}{{1.1}{1}{Artists}{section.1.1}{}}
\newlabel{artists::doc}{{1.1}{1}{Artists}{section.1.1}{}}
\@writefile{toc}{\contentsline {subsection}{\numberline {1.1.1}Adding Artists}{1}{subsection.1.1.1}}
\newlabel{artists:adding-artists}{{1.1.1}{1}{Adding Artists}{subsection.1.1.1}{}}
\@writefile{toc}{\contentsline {subsubsection}{Manually}{1}{subsubsection*.3}}
\newlabel{artists:manually}{{1.1.1}{1}{Manually}{subsubsection*.3}{}}
\@writefile{toc}{\contentsline {subsubsection}{Import with CSV file}{1}{subsubsection*.4}}
\newlabel{artists:import-with-csv-file}{{1.1.1}{1}{Import with CSV file}{subsubsection*.4}{}}
\@writefile{toc}{\contentsline {subsection}{\numberline {1.1.2}Deleting Artists}{1}{subsection.1.1.2}}
\newlabel{artists:deleting-artists}{{1.1.2}{1}{Deleting Artists}{subsection.1.1.2}{}}
\@writefile{toc}{\contentsline {section}{\numberline {1.2}Artworks}{1}{section.1.2}}
\newlabel{artworks:artworks}{{1.2}{1}{Artworks}{section.1.2}{}}
\newlabel{artworks::doc}{{1.2}{1}{Artworks}{section.1.2}{}}
\@writefile{toc}{\contentsline {subsection}{\numberline {1.2.1}Adding Artworks}{1}{subsection.1.2.1}}
\newlabel{artworks:adding-artworks}{{1.2.1}{1}{Adding Artworks}{subsection.1.2.1}{}}
\@writefile{toc}{\contentsline {subsubsection}{Manually}{2}{subsubsection*.5}}
\newlabel{artworks:manually}{{1.2.1}{2}{Manually}{subsubsection*.5}{}}
\@writefile{toc}{\contentsline {subsubsection}{Import with CSV file}{2}{subsubsection*.6}}
\newlabel{artworks:import-with-csv-file}{{1.2.1}{2}{Import with CSV file}{subsubsection*.6}{}}
\@writefile{toc}{\contentsline {subsection}{\numberline {1.2.2}Deleting Artworks}{2}{subsection.1.2.2}}
\newlabel{artworks:deleting-artworks}{{1.2.2}{2}{Deleting Artworks}{subsection.1.2.2}{}}
\@writefile{toc}{\contentsline {chapter}{\numberline {2}Indices and tables}{3}{chapter.2}}
\@writefile{lof}{\addvspace {10\p@ }}
\@writefile{lot}{\addvspace {10\p@ }}
\newlabel{index:indices-and-tables}{{2}{3}{Indices and tables}{chapter.2}{}}
